[0210/201239.821076:INFO:CONSOLE(1)] "Registering service worker", source: https://assets.tokopedia.net/assets-tokopedia-lite/v2/zeus/kratos/chunk.main.db03f1a7333a69d98b88.js (1)
[0210/201240.363510:INFO:CONSOLE(1)] "webp is supported", source: https://assets.tokopedia.net/assets-tokopedia-lite/v2/zeus/kratos/chunk.main.db03f1a7333a69d98b88.js (1)
[0210/201245.929448:INFO:CONSOLE(0)] "Access to fetch at 'https://gql.tokopedia.com/' from origin 'https://www.tokopedia.com' has been blocked by CORS policy: Response to preflight request doesn't pass access control check: No 'Access-Control-Allow-Origin' header is present on the requested resource. If an opaque response serves your needs, set the request's mode to 'no-cors' to fetch the resource with CORS disabled.", source: https://www.tokopedia.com/discovery/produk-terlaris (0)
[0210/201256.888299:INFO:CONSOLE(1)] "TDN Script Loaded!", source: https://assets.tokopedia.net/assets-tokopedia-lite/v2/zeus/kratos/chunk.main.db03f1a7333a69d98b88.js (1)
[0210/201257.055195:INFO:CONSOLE(25)] "Uncaught TypeError: Cannot convert undefined or null to object", source: https://www.tokopedia.com/discovery/produk-terlaris (25)
